Interface to Phylocom • rOpenSci: phylocomr
…
aot

traits_file <- system.file("examples/traits_aot", package = "phylocomr")
phylo_file <- system.file("examples/phylo_aot", package = "phylocomr")
traitsdf_file <- system.file("examples/traits_aot_df", package = "phylocomr")
traits <- read.table(text = readLines(traitsdf_file), header = TRUE,
  stringsAsFactors = FALSE)
phylo_str <- readLines(phylo_file)
ph_aot(traits = traits, phylo = phylo_str)

#> $trait_conservatism
#> # A tibble: 124 x 28
#>    trait trait.name  node name    age ntaxa n.nodes tip.mn tmn.ranklow
#>    <int> <chr>      <int> <chr> <dbl> <int>   <int>  <dbl>       <int>
#>  1     1 traitA         0 a         5    32       2   1.75        1000
#>  2     1 traitA         1 b         4    16       2   1.75         640
#>  3     1 traitA         2 c         3     8       2   1.75         679
#>  4     1 traitA         3 d         2     4       2   1.5          251
#>  5     1 traitA         4 e         1     2       2   1             59
#>  6     1 traitA         7 f         1     2       2   2           1000
#>  7     1 traitA        10 g         2     4       2   2           1000
#>  8     1 traitA        11 h         1     2       2   2           1000
#>  9     1 traitA        14 i         1     2       2   2           1000
#> 10     1 traitA        17 j         3     8       2   1.75         664
#> # … with 114 more rows, and 19 more variables: tmn.rankhi <int>, tip.sd <dbl>,
#> #   tsd.ranklow <int>, tsd.rankhi <int>, node.mn <dbl>, nmn.ranklow <int>,
#> #   nmn.rankhi <int>, nod.sd <dbl>, nsd.ranklow <int>, nsd.rankhi <int>,
#> #   sstipsroot <dbl>, sstips <dbl>, percvaramongnodes <dbl>,
#> #   percvaratnode <dbl>, contributionindex <dbl>, sstipvnoderoot <dbl>,
#> #   sstipvnode <dbl>, ssamongnodes <dbl>, sswithinnodes <dbl>
#> 
#> $independent_contrasts
#> # A tibble: 31 x 17
#>     node name    age n.nodes contrast1 contrast2 contrast3 contrast4 contrastsd
#>    <int> <chr> <dbl>   <int>     <dbl>     <dbl>     <dbl>     <dbl>      <dbl>
#>  1     0 a         5       2     0         0         0         0.254       1.97
#>  2     1 b         4       2     0         1.03      0         0.516       1.94
#>  3     2 c         3       2     0.267     0.535     0         0           1.87
#>  4     3 d         2       2     0.577     0         1.15      0           1.73
#>  5     4 e         1       2     0         0         0.707     0           1.41
#>  6     7 f         1       2     0         0         0.707     0           1.41
#>  7    10 g         2       2     0         0         1.15      0           1.73
#>  8    11 h         1       2     0         0         0.707     0           1.41
#>  9    14 i         1       2     0         0         0.707     0           1.41
#> 10    17 j         3       2     0.267     0.535     0         0           1.87
#> # … with 21 more rows, and 8 more variables: lowval1 <dbl>, hival1 <dbl>,
#> #   lowval2 <dbl>, hival2 <dbl>, lowval3 <dbl>, hival3 <dbl>, lowval4 <dbl>,
#> #   hival4 <dbl>
…
